waveform.vcd
$date
	Mon May 26 10:24:20 2025
$end
$version
	Icarus Verilog
$end
$timescale
	1s
$end
$scope module TestBench $end
$var parameter 32 ! num_cycles $end
$var reg 1 " Clk $end
$var reg 1 # Reset $end
$var integer 32 $ counter [31:0] $end
$var integer 32 % flush [31:0] $end
$var integer 32 & i [31:0] $end
$var integer 32 ' outfile [31:0] $end
$var integer 32 ( stall [31:0] $end
$scope module CPU $end
$var wire 1 ) ID_FlushIF $end
$var wire 1 " clk_i $end
$var wire 1 * flush_o $end
$var wire 1 + id_branch_taken_signal $end
$var wire 1 , if_id_flush_signal $end
$var wire 1 - pc_mux_sel $end
$var wire 32 . pc_o [31:0] $end
$var wire 1 # rst_i $end
$var wire 1 / stall_o $end
$var wire 32 0 wb_write_back_data [31:0] $end
$var wire 5 1 rs2_addr [4:0] $end
$var wire 5 2 rs1_addr [4:0] $end
$var wire 32 3 pc_plus_4 [31:0] $end
$var wire 32 4 pc_next_val [31:0] $end
$var wire 32 5 pc_current [31:0] $end
$var wire 7 6 opcode [6:0] $end
$var wire 1 7 mem_wb_reg_write_out $end
$var wire 32 8 mem_wb_read_data_out [31:0] $end
$var wire 5 9 mem_wb_rd_addr_out [4:0] $end
$var wire 1 : mem_wb_mem_to_reg_out $end
$var wire 32 ; mem_wb_alu_result_out [31:0] $end
$var wire 32 < mem_data_memory_read_data [31:0] $end
$var wire 32 = instruction [31:0] $end
$var wire 32 > if_id_pc_out [31:0] $end
$var wire 32 ? if_id_instr_out [31:0] $end
$var wire 32 @ id_rs2_data [31:0] $end
$var wire 32 A id_rs1_data [31:0] $end
$var wire 1 B id_registers_equal $end
$var wire 5 C id_rd_addr [4:0] $end
$var wire 32 D id_imm_out [31:0] $end
$var wire 32 E id_ex_rs2_data_out [31:0] $end
$var wire 5 F id_ex_rs2_addr_out [4:0] $end
$var wire 32 G id_ex_rs1_data_out [31:0] $end
$var wire 5 H id_ex_rs1_addr_out [4:0] $end
$var wire 1 I id_ex_reg_write_out $end
$var wire 5 J id_ex_rd_addr_out [4:0] $end
$var wire 1 K id_ex_mem_write_out $end
$var wire 1 L id_ex_mem_to_reg_out $end
$var wire 1 M id_ex_mem_read_out $end
$var wire 32 N id_ex_imm_out [31:0] $end
$var wire 7 O id_ex_funct7_out [6:0] $end
$var wire 3 P id_ex_funct3_out [2:0] $end
$var wire 1 Q id_ex_alu_src_out $end
$var wire 2 R id_ex_alu_op_out [1:0] $end
$var wire 1 S hzd_stall_signal $end
$var wire 1 T hzd_pc_write_enable $end
$var wire 1 U hzd_insert_noop_signal $end
$var wire 2 V fwd_b_sel [1:0] $end
$var wire 2 W fwd_a_sel [1:0] $end
$var wire 7 X funct7 [6:0] $end
$var wire 3 Y funct3 [2:0] $end
$var wire 32 Z ex_store_data_forwarded [31:0] $end
$var wire 32 [ ex_mem_rs2_data_out [31:0] $end
$var wire 1 \ ex_mem_reg_write_out $end
$var wire 5 ] ex_mem_rd_addr_out [4:0] $end
$var wire 1 ^ ex_mem_mem_write_out $end
$var wire 1 _ ex_mem_mem_to_reg_out $end
$var wire 1 ` ex_mem_mem_read_out $end
$var wire 32 a ex_mem_alu_result_out [31:0] $end
$var wire 32 b ex_alu_result [31:0] $end
$var wire 32 c ex_alu_operand_b_src [31:0] $end
$var wire 32 d ex_alu_operand_b [31:0] $end
$var wire 32 e ex_alu_operand_a [31:0] $end
$var wire 4 f ex_alu_control_out [3:0] $end
$var wire 1 g ctrl_reg_write $end
$var wire 1 h ctrl_mem_write $end
$var wire 1 i ctrl_mem_to_reg $end
$var wire 1 j ctrl_mem_read $end
$var wire 1 k ctrl_branch $end
$var wire 1 l ctrl_alu_src $end
$var wire 2 m ctrl_alu_op [1:0] $end
$var wire 32 n branch_target_address [31:0] $end
$scope module Control $end
$var wire 7 o opcode [6:0] $end
$var wire 1 U noop_in $end
$var reg 2 p ALUOp [1:0] $end
$var reg 1 l ALUSrc $end
$var reg 1 k Branch_o $end
$var reg 1 j MemRead $end
$var reg 1 h MemWrite $end
$var reg 1 i MemtoReg $end
$var reg 1 g RegWrite $end
$upscope $end
$scope module Data_Memory $end
$var wire 1 " clk_i $end
$var wire 32 q data_o [31:0] $end
$var wire 32 r data_i [31:0] $end
$var wire 32 s addr_i [31:0] $end
$var wire 1 ^ MemWrite_i $end
$var wire 1 ` MemRead_i $end
$upscope $end
$scope module Hazard_Detection $end
$var wire 5 t IF_ID_Rs1 [4:0] $end
$var wire 5 u IF_ID_Rs2 [4:0] $end
$var wire 5 v ID_EX_Rd [4:0] $end
$var wire 1 M ID_EX_MemRead $end
$var reg 1 U InsertNoOp $end
$var reg 1 T PCWrite $end
$var reg 1 S Stall_o $end
$upscope $end
$scope module Instruction_Memory $end
$var wire 32 w instr_o [31:0] $end
$var wire 32 x addr_i [31:0] $end
$upscope $end
$scope module PC $end
$var wire 1 T PCWrite_i $end
$var wire 1 " clk_i $end
$var wire 1 # rst_i $end
$var wire 32 y pc_i [31:0] $end
$var reg 32 z pc_o [31:0] $end
$upscope $end
$scope module Registers $end
$var wire 5 { RS1addr_i [4:0] $end
$var wire 5 | RS2addr_i [4:0] $end
$var wire 1 " clk_i $end
$var wire 1 # rst_i $end
$var wire 1 7 RegWrite_i $end
$var wire 32 } RS2data_o [31:0] $end
$var wire 32 ~ RS1data_o [31:0] $end
$var wire 32 !" RDdata_i [31:0] $end
$var wire 5 "" RDaddr_i [4:0] $end
$var integer 32 #" i [31:0] $end
$upscope $end
$scope module alu_control_unit $end
$var wire 7 $" funct7 [6:0] $end
$var wire 3 %" funct3 [2:0] $end
$var wire 2 &" ALUOp [1:0] $end
$var reg 4 '" out [3:0] $end
$upscope $end
$scope module alu_mux_a $end
$var wire 32 (" d [31:0] $end
$var wire 2 )" signal [1:0] $end
$var wire 32 *" out [31:0] $end
$var wire 32 +" c [31:0] $end
$var wire 32 ," b [31:0] $end
$var wire 32 -" a [31:0] $end
$upscope $end
$scope module alu_mux_b $end
$var wire 32 ." d [31:0] $end
$var wire 2 /" signal [1:0] $end
$var wire 32 0" out [31:0] $end
$var wire 32 1" c [31:0] $end
$var wire 32 2" b [31:0] $end
$var wire 32 3" a [31:0] $end
$upscope $end
$scope module alu_operand_b_source_mux $end
$var wire 32 4" a [31:0] $end
$var wire 1 Q signal $end
$var wire 32 5" out [31:0] $end
$var wire 32 6" b [31:0] $end
$upscope $end
$scope module branch_target_adder $end
$var wire 32 7" c [31:0] $end
$var wire 32 8" b [31:0] $end
$var wire 32 9" a [31:0] $end
$upscope $end
$scope module ex_mem_reg $end
$var wire 1 " clk $end
$var wire 1 # rst $end
$var wire 32 :" rs2_data_in [31:0] $end
$var wire 5 ;" rd_in [4:0] $end
$var wire 32 <" alu_result_in [31:0] $end
$var wire 1 I RegWrite_in $end
$var wire 1 L MemtoReg_in $end
$var wire 1 K MemWrite_in $end
$var wire 1 M MemRead_in $end
$var reg 1 ` MemRead_out $end
$var reg 1 ^ MemWrite_out $end
$var reg 1 _ MemtoReg_out $end
$var reg 1 \ RegWrite_out $end
$var reg 32 =" alu_result_out [31:0] $end
$var reg 5 >" rd_out [4:0] $end
$var reg 32 ?" rs2_data_out [31:0] $end
$upscope $end
$scope module forwarding_unit $end
$var wire 5 @" EX_MEM_Rd [4:0] $end
$var wire 1 \ EX_MEM_RegWrite $end
$var wire 1 7 MEM_WB_RegWrite $end
$var wire 5 A" MEM_WB_Rd [4:0] $end
$var wire 5 B" ID_EX_Rs2 [4:0] $end
$var wire 5 C" ID_EX_Rs1 [4:0] $end
$var reg 2 D" ForwardA [1:0] $end
$var reg 2 E" ForwardB [1:0] $end
$upscope $end
$scope module id_ex_reg $end
$var wire 2 F" ALUOp_in [1:0] $end
$var wire 1 l ALUSrc_in $end
$var wire 1 j MemRead_in $end
$var wire 1 h MemWrite_in $end
$var wire 1 i MemtoReg_in $end
$var wire 1 g RegWrite_in $end
$var wire 1 " clk $end
$var wire 3 G" funct3_in [2:0] $end
$var wire 7 H" funct7_in [6:0] $end
$var wire 5 I" rd_in [4:0] $end
$var wire 32 J" rs1_data_in [31:0] $end
$var wire 5 K" rs1_in [4:0] $end
$var wire 32 L" rs2_data_in [31:0] $end
$var wire 5 M" rs2_in [4:0] $end
$var wire 1 # rst $end
$var wire 32 N" imm_in [31:0] $end
$var reg 2 O" ALUOp_out [1:0] $end
$var reg 1 Q ALUSrc_out $end
$var reg 1 M MemRead_out $end
$var reg 1 K MemWrite_out $end
$var reg 1 L MemtoReg_out $end
$var reg 1 I RegWrite_out $end
$var reg 3 P" funct3_out [2:0] $end
$var reg 7 Q" funct7_out [6:0] $end
$var reg 32 R" imm_out [31:0] $end
$var reg 5 S" rd_out [4:0] $end
$var reg 32 T" rs1_data_out [31:0] $end
$var reg 5 U" rs1_out [4:0] $end
$var reg 32 V" rs2_data_out [31:0] $end
$var reg 5 W" rs2_out [4:0] $end
$upscope $end
$scope module if_id_reg $end
$var wire 1 " clk $end
$var wire 1 , flush $end
$var wire 32 X" instr_in [31:0] $end
$var wire 32 Y" pc_in [31:0] $end
$var wire 1 # rst $end
$var wire 1 S stall $end
$var reg 32 Z" instr_out [31:0] $end
$var reg 32 [" pc_out [31:0] $end
$upscope $end
$scope module imm_gen_unit $end
$var wire 32 \" inst [31:0] $end
$var wire 7 ]" opcode [6:0] $end
$var wire 7 ^" funct7 [6:0] $end
$var wire 3 _" funct3 [2:0] $end
$var reg 32 `" imm [31:0] $end
$upscope $end
$scope module main_alu $end
$var wire 32 a" a [31:0] $end
$var wire 32 b" b [31:0] $end
$var wire 4 c" control [3:0] $end
$var reg 32 d" result [31:0] $end
$upscope $end
$scope module mem_wb_reg $end
$var wire 1 _ MemtoReg_in $end
$var wire 1 \ RegWrite_in $end
$var wire 32 e" alu_result_in [31:0] $end
$var wire 1 " clk $end
$var wire 5 f" rd_in [4:0] $end
$var wire 32 g" read_data_in [31:0] $end
$var wire 1 # rst $end
$var reg 1 : MemtoReg_out $end
$var reg 1 7 RegWrite_out $end
$var reg 32 h" alu_result_out [31:0] $end
$var reg 5 i" rd_out [4:0] $end
$var reg 32 j" read_data_out [31:0] $end
$upscope $end
$scope module pc_plus_4_adder $end
$var wire 32 k" a [31:0] $end
$var wire 32 l" b [31:0] $end
$var wire 32 m" c [31:0] $end
$upscope $end
$scope module pc_select_mux $end
$var wire 32 n" a [31:0] $end
$var wire 32 o" b [31:0] $end
$var wire 1 - signal $end
$var wire 32 p" out [31:0] $end
$upscope $end
$scope module store_data_mux $end
$var wire 32 q" a [31:0] $end
$var wire 32 r" c [31:0] $end
$var wire 32 s" d [31:0] $end
$var wire 2 t" signal [1:0] $end
$var wire 32 u" out [31:0] $end
$var wire 32 v" b [31:0] $end
$upscope $end
$scope module write_back_data_mux $end
$var wire 32 w" a [31:0] $end
$var wire 32 x" b [31:0] $end
$var wire 1 : signal $end
$var wire 32 y" out [31:0] $end
$upscope $end
$upscope $end
$upscope $end
$enddefinitions $end
$comment Show the parameter values. $end
$dumpall
b1000000 !
$end
#0
$dumpvars
bx y"
bx x"
bx w"
bx v"
bx u"
bx t"
bz s"
bx r"
bx q"
bx p"
bx o"
bx n"
bx m"
b100 l"
bx k"
bx j"
bx i"
bx h"
bx g"
bx f"
bx e"
bx d"
bx c"
bx b"
bx a"
bx `"
bx _"
bx ^"
bx ]"
bx \"
bx ["
bx Z"
bx Y"
bx X"
bx W"
bx V"
bx U"
bx T"
bx S"
bx R"
bx Q"
bx P"
bx O"
bx N"
bx M"
bx L"
bx K"
bx J"
bx I"
bx H"
bx G"
bx F"
bx E"
bx D"
bx C"
bx B"
bx A"
bx @"
bx ?"
bx >"
bx ="
bx <"
bx ;"
bx :"
bx 9"
bx 8"
bx 7"
bx 6"
bx 5"
bx 4"
bx 3"
bx 2"
bx 1"
bx 0"
bx /"
bz ."
bx -"
bx ,"
bx +"
bx *"
bx )"
bz ("
bx '"
bx &"
bx %"
bx $"
bx #"
bx ""
bx !"
bx ~
bx }
bx |
bx {
bx z
bx y
bx x
bx w
bx v
bx u
bx t
bx s
bx r
bx q
bx p
bx o
bx n
bx m
xl
xk
xj
xi
xh
xg
bx f
bx e
bx d
bx c
bx b
bx a
x`
x_
x^
bx ]
x\
bx [
bx Z
bx Y
bx X
bx W
bx V
xU
xT
xS
bx R
xQ
bx P
bx O
bx N
xM
xL
xK
bx J
xI
bx H
bx G
bx F
bx E
bx D
bx C
xB
bx A
bx @
bx ?
bx >
bx =
bx <
bx ;
x:
bx 9
bx 8
x7
bx 6
bx 5
bx 4
bx 3
bx 2
bx 1
bx 0
x/
bx .
x-
x,
x+
x*
x)
b0 (
b11 '
b100000 &
b0 %
b0 $
1#
0"
$end
#6
b100 4
b100 y
b100 p"
b0 b
b0 <"
b0 d"
0-
0*
0)
0,
0+
b0 d
b0 5"
b0 b"
0k
0l
b0 m
b0 p
b0 F"
0h
0j
0i
0g
1B
b0 @
b0 }
b0 L"
b0 A
b0 ~
b0 J"
b10010000000011 =
b10010000000011 w
b10010000000011 X"
b0 n
b0 7"
b0 o"
b0 D
b0 8"
b0 N"
b0 `"
b0 ]"
b0 _"
b0 ^"
b0 C
b0 I"
b0 1
b0 u
b0 |
b0 M"
b0 2
b0 t
b0 {
b0 K"
b0 X
b0 H"
b0 Y
b0 G"
b0 6
b0 o
b0 Z
b0 :"
b0 u"
b0 c
b0 0"
b0 4"
b0 e
b0 *"
b0 a"
b11 f
b11 '"
b11 c"
0U
0/
0S
1T
b0 <
b0 q
b0 g"
b0 0
b0 !"
b0 ,"
b0 2"
b0 v"
b0 y"
b0 V
b0 /"
b0 E"
b0 t"
b0 W
b0 )"
b0 D"
b100 3
b100 m"
b100 n"
b0 .
b0 5
b0 x
b0 z
b0 Y"
b0 k"
b0 >
b0 9"
b0 ["
b0 ?
b0 Z"
b0 \"
b0 J
b0 v
b0 ;"
b0 S"
b0 F
b0 B"
b0 W"
b0 H
b0 C"
b0 U"
b0 O
b0 $"
b0 Q"
b0 P
b0 %"
b0 P"
b0 N
b0 6"
b0 R"
b0 E
b0 3"
b0 V"
b0 q"
b0 G
b0 -"
b0 T"
0Q
b0 R
b0 &"
b0 O"
0K
0M
0L
0I
b0 ]
b0 >"
b0 @"
b0 f"
b0 [
b0 r
b0 ?"
b0 a
b0 s
b0 +"
b0 1"
b0 ="
b0 e"
b0 r"
0^
0`
0_
0\
b0 9
b0 ""
b0 A"
b0 i"
b0 ;
b0 h"
b0 w"
b0 8
b0 j"
b0 x"
0:
07
b100000 #"
0#
#12
1#
#25
1l
1j
1i
1g
b11 ]"
b10 _"
b1000 C
b1000 I"
b10 Y
b10 G"
b11 6
b11 o
b1000 4
b1000 y
b1000 p"
b100001000000010010110011 =
b100001000000010010110011 w
b100001000000010010110011 X"
b10010000000011 ?
b10010000000011 Z"
b10010000000011 \"
b1000 3
b1000 m"
b1000 n"
b100 .
b100 5
b100 x
b100 z
b100 Y"
b100 k"
b1 $
1"
#50
0"
#75
0g
1U
1/
1S
0T
0l
b0 m
b0 p
b0 F"
0j
0i
b1100 4
b1100 y
b1100 p"
b10000000010010100000011 =
b10000000010010100000011 w
b10000000010010100000011 X"
b110011 ]"
b0 _"
b1001 C
b1001 I"
b1000 1
b1000 u
b1000 |
b1000 M"
b1000 2
b1000 t
b1000 {
b1000 K"
b0 Y
b0 G"
b110011 6
b110011 o
b1100 3
b1100 m"
b1100 n"
b1000 .
b1000 5
b1000 x
b1000 z
b1000 Y"
b1000 k"
b100 n
b100 7"
b100 o"
b100 >
b100 9"
b100 ["
b100001000000010010110011 ?
b100001000000010010110011 Z"
b100001000000010010110011 \"
b1000 J
b1000 v
b1000 ;"
b1000 S"
b10 P
b10 %"
b10 P"
1Q
1M
1L
1I
b10 $
1"
#100
0"
#125
b10 m
b10 p
b10 F"
1g
b101 <
b101 q
b101 g"
b10 V
b10 /"
b10 E"
b10 t"
b10 W
b10 )"
b10 D"
0U
0/
0S
1T
b1000 ]
b1000 >"
b1000 @"
b1000 f"
1`
1_
1\
b1001 J
b1001 v
b1001 ;"
b1001 S"
b1000 F
b1000 B"
b1000 W"
b1000 H
b1000 C"
b1000 U"
b0 P
b0 %"
b0 P"
0Q
0M
0L
0I
b11 $
b1 (
1"
#150
0"
#175
b101 d
b101 5"
b101 b"
b1010 b
b1010 <"
b1010 d"
b101 Z
b101 :"
b101 u"
b101 c
b101 0"
b101 4"
b101 e
b101 *"
b101 a"
1l
b0 m
b0 p
b0 F"
1j
1i
b101 0
b101 !"
b101 ,"
b101 2"
b101 v"
b101 y"
b10000 4
b10000 y
b10000 p"
b101001010000010110110011 =
b101001010000010110110011 w
b101001010000010110110011 X"
b100 D
b100 8"
b100 N"
b100 `"
b11 ]"
b10 _"
b1010 C
b1010 I"
b100 1
b100 u
b100 |
b100 M"
b0 2
b0 t
b0 {
b0 K"
b10 Y
b10 G"
b11 6
b11 o
b0 <
b0 q
b0 g"
b1 V
b1 /"
b1 E"
b1 t"
b1 W
b1 )"
b1 D"
b10000 3
b10000 m"
b10000 n"
b1100 .
b1100 5
b1100 x
b1100 z
b1100 Y"
b1100 k"
b1100 n
b1100 7"
b1100 o"
b1000 >
b1000 9"
b1000 ["
b10000000010010100000011 ?
b10000000010010100000011 Z"
b10000000010010100000011 \"
b10 R
b10 &"
b10 O"
1I
b1001 ]
b1001 >"
b1001 @"
b1001 f"
0`
0_
0\
b1000 9
b1000 ""
b1000 A"
b1000 i"
b101 8
b101 j"
b101 x"
1:
17
b100 $
1"
#200
0"
#225
b100 b
b100 <"
b100 d"
b0 0
b0 !"
b0 ,"
b0 2"
b0 v"
b0 y"
b0 Z
b0 :"
b0 u"
b0 c
b0 0"
b0 4"
b0 e
b0 *"
b0 a"
b100 d
b100 5"
b100 b"
0l
0j
0i
0g
b0 V
b0 /"
b0 E"
b0 t"
b0 W
b0 )"
b0 D"
1U
1/
1S
0T
b0 D
b0 8"
b0 N"
b0 `"
b110011 ]"
b0 _"
b1011 C
b1011 I"
b1010 1
b1010 u
b1010 |
b1010 M"
b1010 2
b1010 t
b1010 {
b1010 K"
b0 Y
b0 G"
b110011 6
b110011 o
b10100 4
b10100 y
b10100 p"
b100000000010011000000011 =
b100000000010011000000011 w
b100000000010011000000011 X"
b1001 9
b1001 ""
b1001 A"
b1001 i"
b0 8
b0 j"
b0 x"
0:
07
b101 [
b101 r
b101 ?"
b1010 a
b1010 s
b1010 +"
b1010 1"
b1010 ="
b1010 e"
b1010 r"
1\
b1010 J
b1010 v
b1010 ;"
b1010 S"
b100 F
b100 B"
b100 W"
b0 H
b0 C"
b0 U"
b10 P
b10 %"
b10 P"
b100 N
b100 6"
b100 R"
1Q
b0 R
b0 &"
b0 O"
1M
1L
b1100 n
b1100 7"
b1100 o"
b1100 >
b1100 9"
b1100 ["
b101001010000010110110011 ?
b101001010000010110110011 Z"
b101001010000010110110011 \"
b10100 3
b10100 m"
b10100 n"
b10000 .
b10000 5
b10000 x
b10000 z
b10000 Y"
b10000 k"
b101 $
1"
#250
0"
#275
b100 Z
b100 :"
b100 u"
b100 c
b100 0"
b100 4"
b100 e
b100 *"
b100 a"
b1000 b
b1000 <"
b1000 d"
b100 d
b100 5"
b100 b"
b10 m
b10 p
b10 F"
1g
0U
0/
0S
1T
b110 <
b110 q
b110 g"
b1010 0
b1010 !"
b1010 ,"
b1010 2"
b1010 v"
b1010 y"
b10 V
b10 /"
b10 E"
b10 t"
b10 W
b10 )"
b10 D"
b1011 J
b1011 v
b1011 ;"
b1011 S"
b1010 F
b1010 B"
b1010 W"
b1010 H
b1010 C"
b1010 U"
b0 P
b0 %"
b0 P"
b0 N
b0 6"
b0 R"
0Q
0M
0L
0I
b1010 ]
b1010 >"
b1010 @"
b1010 f"
b0 [
b0 r
b0 ?"
b100 a
b100 s
b100 +"
b100 1"
b100 ="
b100 e"
b100 r"
1`
1_
b1010 ;
b1010 h"
b1010 w"
17
b110 $
b10 (
1"
#300
0"
#325
b110 d
b110 5"
b110 b"
b1100 b
b1100 <"
b1100 d"
b110 Z
b110 :"
b110 u"
b110 c
b110 0"
b110 4"
b110 e
b110 *"
b110 a"
0B
b101 @
b101 }
b101 L"
1l
b0 m
b0 p
b0 F"
1j
1i
b110 0
b110 !"
b110 ,"
b110 2"
b110 v"
b110 y"
b0 <
b0 q
b0 g"
b1 V
b1 /"
b1 E"
b1 t"
b1 W
b1 )"
b1 D"
b1000 D
b1000 8"
b1000 N"
b1000 `"
b11 ]"
b10 _"
b1100 C
b1100 I"
b1000 1
b1000 u
b1000 |
b1000 M"
b0 2
b0 t
b0 {
b0 K"
b10 Y
b10 G"
b11 6
b11 o
b11000 4
b11000 y
b11000 p"
b110001100000011010110011 =
b110001100000011010110011 w
b110001100000011010110011 X"
b1010 9
b1010 ""
b1010 A"
b1010 i"
b100 ;
b100 h"
b100 w"
b110 8
b110 j"
b110 x"
1:
b1011 ]
b1011 >"
b1011 @"
b1011 f"
b100 [
b100 r
b100 ?"
b1000 a
b1000 s
b1000 +"
b1000 1"
b1000 ="
b1000 e"
b1000 r"
0`
0_
0\
b10 R
b10 &"
b10 O"
1I
b11000 n
b11000 7"
b11000 o"
b10000 >
b10000 9"
b10000 ["
b100000000010011000000011 ?
b100000000010011000000011 Z"
b100000000010011000000011 \"
b11000 3
b11000 m"
b11000 n"
b10100 .
b10100 5
b10100 x
b10100 z
b10100 Y"
b10100 k"
b111 $
1"
#350
0"
#375
0g
b1000 b
b1000 <"
b1000 d"
1B
b0 @
b0 }
b0 L"
1U
1/
1S
0T
0l
b0 m
b0 p
b0 F"
0j
0i
b1000 d
b1000 5"
b1000 b"
b1000 0
b1000 !"
b1000 ,"
b1000 2"
b1000 v"
b1000 y"
b101 Z
b101 :"
b101 u"
b101 c
b101 0"
b101 4"
b0 e
b0 *"
b0 a"
b11100 4
b11100 y
b11100 p"
b110000000010011100000011 =
b110000000010011100000011 w
b110000000010011100000011 X"
b0 D
b0 8"
b0 N"
b0 `"
b110011 ]"
b0 _"
b1101 C
b1101 I"
b1100 1
b1100 u
b1100 |
b1100 M"
b1100 2
b1100 t
b1100 {
b1100 K"
b0 Y
b0 G"
b110011 6
b110011 o
b0 V
b0 /"
b0 E"
b0 t"
b0 W
b0 )"
b0 D"
b11100 3
b11100 m"
b11100 n"
b11000 .
b11000 5
b11000 x
b11000 z
b11000 Y"
b11000 k"
b10100 n
b10100 7"
b10100 o"
b10100 >
b10100 9"
b10100 ["
b110001100000011010110011 ?
b110001100000011010110011 Z"
b110001100000011010110011 \"
b1100 J
b1100 v
b1100 ;"
b1100 S"
b1000 F
b1000 B"
b1000 W"
b0 H
b0 C"
b0 U"
b10 P
b10 %"
b10 P"
b1000 N
b1000 6"
b1000 R"
b101 E
b101 3"
b101 V"
b101 q"
1Q
b0 R
b0 &"
b0 O"
1M
1L
b110 [
b110 r
b110 ?"
b1100 a
b1100 s
b1100 +"
b1100 1"
b1100 ="
b1100 e"
b1100 r"
1\
b1011 9
b1011 ""
b1011 A"
b1011 i"
b1000 ;
b1000 h"
b1000 w"
b0 8
b0 j"
b0 x"
0:
07
b1000 $
1"
#400
0"
#425
b1000 e
b1000 *"
b1000 a"
b10000 b
b10000 <"
b10000 d"
b1000 d
b1000 5"
b1000 b"
b10 m
b10 p
b10 F"
1g
b1100 0
b1100 !"
b1100 ,"
b1100 2"
b1100 v"
b1100 y"
b1010 <
b1010 q
b1010 g"
b10 V
b10 /"
b10 E"
b10 t"
b10 W
b10 )"
b10 D"
b1000 Z
b1000 :"
b1000 u"
b1000 c
b1000 0"
b1000 4"
0U
0/
0S
1T
b1100 ;
b1100 h"
b1100 w"
17
b1100 ]
b1100 >"
b1100 @"
b1100 f"
b101 [
b101 r
b101 ?"
b1000 a
b1000 s
b1000 +"
b1000 1"
b1000 ="
b1000 e"
b1000 r"
1`
1_
b1101 J
b1101 v
b1101 ;"
b1101 S"
b1100 F
b1100 B"
b1100 W"
b1100 H
b1100 C"
b1100 U"
b0 P
b0 %"
b0 P"
b0 N
b0 6"
b0 R"
b0 E
b0 3"
b0 V"
b0 q"
0Q
0M
0L
0I
b1001 $
b11 (
1"
#450
0"
#475
b1010 d
b1010 5"
b1010 b"
b10100 b
b10100 <"
b10100 d"
0B
b1010 @
b1010 }
b1010 L"
b1010 Z
b1010 :"
b1010 u"
b1010 c
b1010 0"
b1010 4"
b1010 e
b1010 *"
b1010 a"
1l
b0 m
b0 p
b0 F"
1j
1i
b100000 4
b100000 y
b100000 p"
b111001110000011110110011 =
b111001110000011110110011 w
b111001110000011110110011 X"
b1100 D
b1100 8"
b1100 N"
b1100 `"
b11 ]"
b10 _"
b1110 C
b1110 I"
b0 2
b0 t
b0 {
b0 K"
b10 Y
b10 G"
b11 6
b11 o
b0 <
b0 q
b0 g"
b1 V
b1 /"
b1 E"
b1 t"
b1 W
b1 )"
b1 D"
b1010 0
b1010 !"
b1010 ,"
b1010 2"
b1010 v"
b1010 y"
b100000 3
b100000 m"
b100000 n"
b11100 .
b11100 5
b11100 x
b11100 z
b11100 Y"
b11100 k"
b100100 n
b100100 7"
b100100 o"
b11000 >
b11000 9"
b11000 ["
b110000000010011100000011 ?
b110000000010011100000011 Z"
b110000000010011100000011 \"
b10 R
b10 &"
b10 O"
1I
b1101 ]
b1101 >"
b1101 @"
b1101 f"
b1000 [
b1000 r
b1000 ?"
b10000 a
b10000 s
b10000 +"
b10000 1"
b10000 ="
b10000 e"
b10000 r"
0`
0_
0\
b1100 9
b1100 ""
b1100 A"
b1100 i"
b1000 ;
b1000 h"
b1000 w"
b1010 8
b1010 j"
b1010 x"
1:
b1010 $
1"
#500
0"
#525
b1100 b
b1100 <"
b1100 d"
b10000 0
b10000 !"
b10000 ,"
b10000 2"
b10000 v"
b10000 y"
1B
b0 @
b0 }
b0 L"
b0 e
b0 *"
b0 a"
b1100 d
b1100 5"
b1100 b"
0l
0j
0i
0g
b0 V
b0 /"
b0 E"
b0 t"
b0 W
b0 )"
b0 D"
1U
1/
1S
0T
b0 D
b0 8"
b0 N"
b0 `"
b110011 ]"
b0 _"
b1111 C
b1111 I"
b1110 1
b1110 u
b1110 |
b1110 M"
b1110 2
b1110 t
b1110 {
b1110 K"
b0 Y
b0 G"
b110011 6
b110011 o
b100100 4
b100100 y
b100100 p"
b1110011000000100000110011 =
b1110011000000100000110011 w
b1110011000000100000110011 X"
b1101 9
b1101 ""
b1101 A"
b1101 i"
b10000 ;
b10000 h"
b10000 w"
b0 8
b0 j"
b0 x"
0:
07
b1010 [
b1010 r
b1010 ?"
b10100 a
b10100 s
b10100 +"
b10100 1"
b10100 ="
b10100 e"
b10100 r"
1\
b1110 J
b1110 v
b1110 ;"
b1110 S"
b0 H
b0 C"
b0 U"
b10 P
b10 %"
b10 P"
b1100 N
b1100 6"
b1100 R"
b1010 E
b1010 3"
b1010 V"
b1010 q"
1Q
b0 R
b0 &"
b0 O"
1M
1L
b11100 n
b11100 7"
b11100 o"
b11100 >
b11100 9"
b11100 ["
b111001110000011110110011 ?
b111001110000011110110011 Z"
b111001110000011110110011 \"
b100100 3
b100100 m"
b100100 n"
b100000 .
b100000 5
b100000 x
b100000 z
b100000 Y"
b100000 k"
b1011 $
1"
#550
0"
#575
b1100 e
b1100 *"
b1100 a"
b11000 b
b11000 <"
b11000 d"
b1100 d
b1100 5"
b1100 b"
b10 m
b10 p
b10 F"
1g
b10010 <
b10010 q
b10010 g"
b1100 Z
b1100 :"
b1100 u"
b1100 c
b1100 0"
b1100 4"
0U
0/
0S
1T
b10100 0
b10100 !"
b10100 ,"
b10100 2"
b10100 v"
b10100 y"
b10 V
b10 /"
b10 E"
b10 t"
b10 W
b10 )"
b10 D"
b1111 J
b1111 v
b1111 ;"
b1111 S"
b1110 F
b1110 B"
b1110 W"
b1110 H
b1110 C"
b1110 U"
b0 P
b0 %"
b0 P"
b0 N
b0 6"
b0 R"
b0 E
b0 3"
b0 V"
b0 q"
0Q
0M
0L
0I
b1110 ]
b1110 >"
b1110 @"
b1110 f"
b1100 a
b1100 s
b1100 +"
b1100 1"
b1100 ="
b1100 e"
b1100 r"
1`
1_
b10100 ;
b10100 h"
b10100 w"
17
b1100 $
b100 (
1"
#600
0"
#625
b10010 d
b10010 5"
b10010 b"
b100100 b
b100100 <"
b100100 d"
b10010 Z
b10010 :"
b10010 u"
b10010 c
b10010 0"
b10010 4"
b10010 e
b10010 *"
b10010 a"
b111000 @
b111000 }
b111000 L"
0B
b11111111111111111111111111101000 A
b11111111111111111111111111101000 ~
b11111111111111111111111111101000 J"
b10010 0
b10010 !"
b10010 ,"
b10010 2"
b10010 v"
b10010 y"
b0 <
b0 q
b0 g"
b1 V
b1 /"
b1 E"
b1 t"
b1 W
b1 )"
b1 D"
b10000 C
b10000 I"
b11100 1
b11100 u
b11100 |
b11100 M"
b11000 2
b11000 t
b11000 {
b11000 K"
b101000 4
b101000 y
b101000 p"
b1110111001000100010110011 =
b1110111001000100010110011 w
b1110111001000100010110011 X"
b1110 9
b1110 ""
b1110 A"
b1110 i"
b1100 ;
b1100 h"
b1100 w"
b10010 8
b10010 j"
b10010 x"
1:
b1111 ]
b1111 >"
b1111 @"
b1111 f"
b1100 [
b1100 r
b1100 ?"
b11000 a
b11000 s
b11000 +"
b11000 1"
b11000 ="
b11000 e"
b11000 r"
0`
0_
0\
b10 R
b10 &"
b10 O"
1I
b100000 n
b100000 7"
b100000 o"
b100000 >
b100000 9"
b100000 ["
b1110011000000100000110011 ?
b1110011000000100000110011 Z"
b1110011000000100000110011 \"
b101000 3
b101000 m"
b101000 n"
b100100 .
b100100 5
b100100 x
b100100 z
b100100 Y"
b100100 k"
b1101 $
1"
#650
0"
